﻿{
    "database": {
        "host": "localhost",
        "port": 3306,
        "user": "root",
        "password": "",
        "database": "techrfppoc"
    },
    "secret": "123456789101112131415",
    "emailFrom": "byptqa1@gmail.com",
    "smtpOptions": {
        "host": "smtp.sendgrid.net",
        "port": 587,
        "auth": {
            "user": "apikey",
            "pass": "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"
        }
    }
}
